…
      -- Cites quotas ($cites_quotas): -----------------------------------------------
      # A tibble: 38 x 10
         id    taxon_concept_id quota publication_date public_display is_current unit 
         <chr> <chr>            <chr> <chr>            <lgl>          <lgl>      <chr>
       1 25337 4521             0     2021-02-03       TRUE           TRUE       <NA> 
       2 25348 4521             0     2021-02-03       TRUE           TRUE       <NA> 
       3 25355 4521             0     2021-02-03       TRUE           TRUE       <NA> 
       4 25358 4521             0     2021-02-03       TRUE           TRUE       <NA> 
       5 25375 4521             0     2021-02-03       TRUE           TRUE       <NA> 
       6 25390 4521             0     2021-02-03       TRUE           TRUE       <NA> 
       7 25414 4521             0     2021-02-03       TRUE           TRUE       <NA> 
       8 25431 4521             0     2021-02-03       TRUE           TRUE       <NA> 
       9 25554 4521             100   2021-02-03       TRUE           TRUE       <NA> 
      10 25555 4521             300   2021-02-03       TRUE           TRUE       <NA> 
      # ... with 28 more rows, and 3 more variables: geo_entity.iso_code2 <chr>,
      #   geo_entity.name <chr>, geo_entity.type <chr>
…
